{
	"configuration":{
		"banner":{
			"linefeed":"\r\n",
			"numberlines":"3"
		},
        
		"logininfo":{  			               
			"connect":"ssh",			"_comment":"set ssh if you uut requires it.",
			"host":"your uut",          "_comment":"host or ip",
			"port":"your uut",          "_comment":"port number",
			"login":"",                "_comment":"login",
			"password":"",            "_comment":"password"
            
		}
    },
	"readme":{
		"date_create":"",
		"author":"",
		"last_update":"",
        "last modify by":"",        
		"description":"SIS Test" 
	},
	"testcaseexecution":{	
        
	    "testcase_q":{
			"precondition":{},
		    "test_info":{
				"Description":"Verify the Query Firmware Version.",
				"TestID":"",
				"Duration":"",
				"TestSuite":"Firmware",
				"TestName":"Query Firmware Version",
				"PassCriteria":"Match the given expected value.",
				"FailureOrSkipReason":"",
				"LastSuccessfulVersion":"",
				"TestLink":""
		    },
			"Steps":{                
                "execommand":{
					 "sis":"q"
				},
                "validate":{
                    "echo":false,
                     "stripcr":true,
                     "svalue":{
                          "value":"1.00",  "_comment":"add your utt version here",
                          "subtest_info":{
                               "Description":"Verify SIS Command[ Q].",
                               "ExpectValue":"1.00",
                               "PassCriteria":"Matches the SIS command pattern."
                          }
                     }
                }	
            }
		},
        "_comment":"sample test"
    }
}