{
    "provider" : "http://rncv-selenium-hub:4444/wd/hub",
    "instanceName" : "chromeOnWindows",
    "platform": "windows",
    "browserName": "chrome",
    "options":[
        "--disable-infobars",
        "--ignore-certificate-errors",
        "--disable-gpu",
        "--no-sandbox",
        "--incognito",
        "--web-security=false",
        "--ignore-ssl-errors",
        "--ignore-certificate-errors-spki-list",
        "--whitelisted-ips="
    ]
}